{
  "$schema": "../../node_modules/ng-packagr/ng-package.schema.json",
  "dest": "../../dist/ngx-signer",
  "lib": {
    "entryFile": "src/public_api.ts"
  },
  "whitelistedNonPeerDependencies": [
    "tslib",
    "lodash",
    "rxjs",
    "ngx-dropzone",
    "blob-util"
  ]
}